<?xml version="1.0" encoding="UTF-8"?>
<svg xmlns="http://www.w3.org/2000/svg" width="152" height="35" viewBox="0 0 152 35" fill="none">
  <path d="M76.3557 14.6751C73.2442 14.6751 70.7809 17.0087 70.7809 20.2499C70.7809 23.3614 73.2442 25.8246 76.3557 25.8246C79.4672 25.8246 81.9304 23.491 81.9304 20.2499C81.9304 16.8791 79.4672 14.6751 76.3557 14.6751ZM76.3557 23.491C74.6703 23.491 73.2442 22.0649 73.2442 20.1202C73.2442 18.1756 74.6703 16.7495 76.3557 16.7495C78.0411 16.7495 79.4672 18.0459 79.4672 20.1202C79.4672 22.0649 78.0411 23.491 76.3557 23.491ZM64.2986 14.6751C61.1872 14.6751 58.7239 17.0087 58.7239 20.2499C58.7239 23.3614 61.1872 25.8246 64.2986 25.8246C67.4101 25.8246 69.8734 23.491 69.8734 20.2499C69.8734 16.8791 67.4101 14.6751 64.2986 14.6751ZM64.2986 23.491C62.6133 23.491 61.1872 22.0649 61.1872 20.1202C61.1872 18.1756 62.6133 16.7495 64.2986 16.7495C65.984 16.7495 67.4101 18.0459 67.4101 20.1202C67.4101 22.0649 65.984 23.491 64.2986 23.491ZM49.908 16.3605V18.6941H55.4827C55.3531 19.9906 54.8345 21.0278 54.1863 21.676C53.4084 22.4539 52.112 23.3614 49.908 23.3614C46.4076 23.3614 43.8146 20.6388 43.8146 17.1384C43.8146 13.638 46.5372 10.9154 49.908 10.9154C51.723 10.9154 53.1491 11.6933 54.1863 12.6008L55.8717 10.9154C54.4456 9.61895 52.6305 8.58179 50.0376 8.58179C45.3704 8.58179 41.3514 12.4712 41.3514 17.1384C41.3514 21.8056 45.3704 25.695 50.0376 25.695C52.6305 25.695 54.4456 24.9171 56.0013 23.2317C57.5571 21.676 58.0757 19.472 58.0757 17.7866C58.0757 17.268 58.0757 16.7495 57.946 16.3605H49.908V16.3605ZM108.767 18.1756C108.248 16.8791 106.952 14.6751 104.1 14.6751C101.248 14.6751 98.914 16.8791 98.914 20.2499C98.914 23.3614 101.248 25.8246 104.359 25.8246C106.822 25.8246 108.378 24.2689 108.897 23.3614L107.082 22.0649C106.433 22.9724 105.656 23.6207 104.359 23.6207C103.063 23.6207 102.285 23.1021 101.637 21.9353L109.026 18.8238L108.767 18.1756ZM101.248 19.9906C101.248 17.9163 102.933 16.7495 104.1 16.7495C105.007 16.7495 105.915 17.268 106.174 17.9163L101.248 19.9906ZM95.1543 25.3061H97.6175V9.10037H95.1543V25.3061ZM91.2649 15.8419C90.6167 15.1937 89.5795 14.5455 88.2831 14.5455C85.5605 14.5455 82.9676 17.0087 82.9676 20.1202C82.9676 23.2317 85.4309 25.5654 88.2831 25.5654C89.5795 25.5654 90.6167 24.9171 91.1353 24.2689H91.2649V25.0468C91.2649 27.1211 90.0981 28.2879 88.2831 28.2879C86.857 28.2879 85.8198 27.2507 85.5605 26.3432L83.4862 27.2507C84.1344 28.6768 85.6902 30.4919 88.4127 30.4919C91.2649 30.4919 93.5985 28.8065 93.5985 24.7875V14.9344H91.2649V15.8419V15.8419ZM88.4127 23.491C86.7273 23.491 85.3012 22.0649 85.3012 20.1202C85.3012 18.1756 86.7273 16.7495 88.4127 16.7495C90.0981 16.7495 91.3946 18.1756 91.3946 20.1202C91.3946 22.0649 90.0981 23.491 88.4127 23.491ZM120.046 9.10037H114.212V25.3061H116.675V19.2127H120.046C122.769 19.2127 125.362 17.268 125.362 14.1565C125.362 11.0451 122.769 9.10037 120.046 9.10037ZM120.176 16.8791H116.675V11.3043H120.176C121.991 11.3043 123.028 12.8601 123.028 14.0269C122.898 15.453 121.861 16.8791 120.176 16.8791ZM135.085 14.5455C133.27 14.5455 131.455 15.3234 130.807 17.0087L133.011 17.9163C133.529 17.0087 134.307 16.7495 135.215 16.7495C136.511 16.7495 137.678 17.5273 137.808 18.8238V18.9534C137.419 18.6941 136.382 18.3052 135.344 18.3052C133.011 18.3052 130.677 19.6017 130.677 21.9353C130.677 24.1393 132.622 25.5654 134.696 25.5654C136.382 25.5654 137.159 24.7875 137.808 24.0096H137.937V25.3061H140.271V19.0831C140.012 16.2309 137.808 14.5455 135.085 14.5455ZM134.826 23.491C134.048 23.491 132.881 23.1021 132.881 22.0649C132.881 20.7685 134.307 20.3795 135.474 20.3795C136.511 20.3795 137.03 20.6388 137.678 20.8981C137.419 22.4539 136.122 23.491 134.826 23.491ZM148.439 14.9344L145.716 21.9353H145.586L142.734 14.9344H140.141L144.42 24.7875L141.956 30.2326H144.42L151.032 14.9344H148.439ZM126.658 25.3061H129.121V9.10037H126.658V25.3061Z" fill="black"></path>
  <path d="M1.55008 1.05872C1.16114 1.5773 1.03149 2.09588 1.03149 3.0034V31.5254C1.03149 32.3033 1.29079 32.9515 1.67972 33.3405L1.80937 33.4701L17.8854 17.3941V17.2644V17.1348L1.55008 1.05872Z" fill="black" stroke="white"></path>
  <path d="M23.0712 22.8392L17.7557 17.5237V17.2644V17.1348L23.0712 11.8193L23.2008 11.949L29.5534 15.5791C31.3685 16.6162 31.3685 18.3016 29.5534 19.3388L23.0712 22.8392Z" fill="black" stroke="white"></path>
  <path d="M23.2009 22.7095L17.7557 17.2644L1.55005 33.4701C2.19828 34.1183 3.1058 34.1183 4.27261 33.5997L23.2009 22.7095Z" fill="black" stroke="white"></path>
  <path d="M23.2009 11.8193L4.27261 1.05875C3.1058 0.410518 2.19828 0.540164 1.55005 1.18839L17.7557 17.2644L23.2009 11.8193Z" fill="black" stroke="white"></path>
</svg>
