<?xml version="1.0" encoding="UTF-8"?>
<svg xmlns="http://www.w3.org/2000/svg" xmlns:xlink="http://www.w3.org/1999/xlink" width="690px" height="195px" viewBox="0 0 690 195">
  <!-- Generator: Sketch 51.2 (57519) - http://www.bohemiancoding.com/sketch -->
  <title>Group 54</title>
  <desc>Created with Sketch.</desc>
  <defs>
    <linearGradient x1="49.9985511%" y1="-137.680934%" x2="49.9999985%" y2="97.4753163%" id="linearGradient-1">
      <stop stop-color="#EEEEEE" offset="0%"></stop>
      <stop stop-color="#EEEEEE" stop-opacity="0.996078431" offset="18.2857143%"></stop>
      <stop stop-color="#EEEEEE" stop-opacity="0.976470588" offset="33.5102041%"></stop>
      <stop stop-color="#EEEEEE" stop-opacity="0.949019608" offset="46.0102041%"></stop>
      <stop stop-color="#EEEEEE" stop-opacity="0.909803922" offset="56.122449%"></stop>
      <stop stop-color="#EEEEEE" stop-opacity="0.862745098" offset="64.1836735%"></stop>
      <stop stop-color="#EEEEEE" stop-opacity="0.8" offset="70.5306122%"></stop>
      <stop stop-color="#EEEEEE" stop-opacity="0.733333333" offset="75.5%"></stop>
      <stop stop-color="#EEEEEE" stop-opacity="0.654901961" offset="79.4285714%"></stop>
      <stop stop-color="#EEEEEE" stop-opacity="0.564705882" offset="82.6530612%"></stop>
      <stop stop-color="#EEEEEE" stop-opacity="0.470588235" offset="85.5102041%"></stop>
      <stop stop-color="#EEEEEE" stop-opacity="0.364705882" offset="88.3367347%"></stop>
      <stop stop-color="#EEEEEE" stop-opacity="0.250980392" offset="91.4693878%"></stop>
      <stop stop-color="#EEEEEE" stop-opacity="0.129411765" offset="95.244898%"></stop>
      <stop stop-color="#EEEEEE" stop-opacity="0" offset="100%"></stop>
    </linearGradient>
    <rect id="path-2" x="0" y="0" width="697" height="204"></rect>
    <polygon id="path-4" points="0.0840151203 0.253666691 89.3389837 0.253666691 89.3389837 21.89625 0.0840151203 21.89625"></polygon>
  </defs>
  <g id="Invision" stroke="none" stroke-width="1" fill="none" fill-rule="evenodd">
    <g id="Home" transform="translate(-335.000000, -1037.000000)">
      <g id="Explore-Beers" transform="translate(-142.000000, 1037.000000)">
        <g id="Group-54" transform="translate(477.000000, 0.000000)">
          <mask id="mask-3" fill="white">
            <use xlink:href="#path-2"></use>
          </mask>
          <use id="Mask" fill="url(#linearGradient-1)" fill-rule="nonzero" xlink:href="#path-2"></use>
          <g mask="url(#mask-3)">
            <path d="M338.247378,72.8093764 C337.499283,72.7187977 336.983703,72.3884519 336.902828,71.9994964 C336.842172,71.5892283 337.337532,71.4720088 338.186721,71.7064478 C338.944926,71.9035896 339.349302,71.0830533 339.157223,69.7829829 C338.934817,68.5255377 337.317313,57.3417351 335.558279,44.8099086 C329.654391,3.29823323 329.088265,0.181261073 327.622403,0.0107600317 C326.854089,-0.0798186463 325.843149,0.410371847 325.307351,1.14565759 C324.781663,1.85430254 325.297242,9.52152122 326.540697,18.2490433 C331.625724,55.0985807 348.124258,145.517414 350.014715,146.854782 C350.59095,147.291691 351.864734,147.542114 353.037424,147.49416 C354.816678,147.398254 354.402192,144.094796 349.489026,118.711454 C343.200982,86.2043644 339.945756,73.0651279 338.247378,72.8093764" id="Fill-1" fill="#F29C50"></path>
            <path d="M397.220912,110.740964 C397.080405,108.694561 397.04026,105.939377 397.210876,104.697679 C397.371456,103.445323 397.411601,98.5691283 397.301202,93.7888585 C397.160695,89.019247 397.301202,82.9812919 397.57218,80.2900586 C397.843158,77.5721794 398.1041,72.0085209 398.18439,67.7878144 C398.234571,63.5564496 398.365042,59.1012594 398.455368,57.747649 C398.615948,55.642625 399.097687,48.9811564 399.740005,41.4083989 C399.810259,40.2466388 399.649679,36.7027376 399.308447,33.4625993 C398.826708,28.5064667 398.405187,27.5951778 396.628775,27.5045818 C395.514754,27.4459609 394.200008,27.9575616 393.888885,28.5970626 C393.527581,29.2685387 393.266639,32.023722 393.316821,34.7149553 C393.39711,37.4115178 393.367002,41.0353567 393.296748,42.751351 C393.226495,44.488662 393.126132,47.0999577 393.045842,48.6560767 C392.65443,62.165535 392.634357,66.1144535 393.02577,71.8433165 C393.266639,75.4298511 393.326857,79.1869194 393.126132,80.1408417 C392.935444,81.1107515 392.664466,83.290384 392.554067,85.0170367 C392.443669,86.733031 392.263017,89.1844514 392.12251,90.511416 C391.951894,91.822393 391.811387,94.1139381 391.821423,95.7180198 C391.761206,97.3061139 391.580554,99.2086293 391.369793,100.055968 C391.128923,100.876661 390.968344,103.706453 390.968344,106.269786 C390.958308,108.865094 390.637148,116.277976 390.245736,122.832861 C389.874395,129.345113 389.553236,137.685272 389.563272,141.399707 C389.573308,145.130129 389.161823,148.567447 388.670048,149.089706 C387.485773,150.320745 387.385411,151.695672 388.469324,151.743635 C394.852363,152.111348 395.053088,151.983448 395.203631,147.608195 C395.243776,145.258029 395.243776,141.554253 395.163486,139.262707 C394.982834,134.962063 395.083196,132.59591 395.795768,123.632238 C396.026602,120.791787 396.21729,117.562307 396.177145,116.528448 C396.167109,115.483929 396.438087,114.604615 396.839536,114.588628 C397.220912,114.561982 397.381492,112.824671 397.220912,110.740964" id="Fill-3" fill="#F29C50"></path>
            <path d="M329.538882,152.471602 C327.598784,148.812015 324.870197,144.021477 323.479967,141.786247 C321.249373,138.147999 318.479287,132.354541 317.379552,129.041708 C317.14093,128.3482 315.875198,127.27593 314.453843,126.582422 C313.042863,125.878245 312.482621,125.323439 313.125862,125.286096 C314.412344,125.23275 312.337373,118.969841 310.884893,118.457712 C310.40765,118.276333 309.868157,117.529478 309.63991,116.771954 C308.685424,113.405774 304.836353,105.707837 295.540483,88.6742185 C294.036129,85.9001873 291.649912,80.8642536 290.290806,77.6154363 C288.900576,74.3399455 287.147225,70.9737653 286.379486,70.1628946 C285.611747,69.3573586 284.190392,66.7166943 283.256655,64.2627436 C282.302168,61.8034582 279.988575,57.1462865 277.965479,53.7801063 C275.952757,50.397922 274.106033,46.9037096 273.774037,45.9221293 C273.006298,43.6655616 268.379113,42.1398444 267.455751,43.8736139 C267.144505,44.4497589 267.331252,45.7674237 267.922619,46.7756774 C268.513986,47.7946004 271.232198,52.5584656 273.90891,57.268984 C276.606373,62.0061758 278.878466,66.6206701 278.961465,67.4422102 C279.034089,68.2850889 280.40357,70.781717 282.001297,73.000942 C283.599025,75.2094976 285.3835,78.2502627 285.995616,79.7333024 C287.043477,82.4646563 289.574941,88.0180534 290.311556,89.2450288 C292.13753,92.2591204 301.620148,110.503711 303.321624,114.307334 C304.493982,116.894652 306.921698,121.962593 308.664674,125.494149 C310.418024,129.015034 312.358122,133.016041 312.939114,134.291028 C313.530481,135.608693 314.931086,138.505422 315.978947,140.75132 C317.099431,142.991884 318.427412,145.728573 318.925405,146.84352 C319.485648,148.011814 320.336386,149.62822 320.938127,150.583127 C321.508744,151.495357 322.442481,153.479856 323.054598,154.984235 C325.534188,161.033757 327.598784,162.415438 331.043236,160.356253 C332.983334,159.17729 332.91071,158.681165 329.538882,152.471602" id="Fill-5" fill="#F29C50"></path>
            <path d="M202.882032,158.081195 C199.993424,156.665705 194.102725,153.775971 189.759496,151.628701 C185.364685,149.492113 179.308923,146.495549 176.162403,144.978572 C172.99525,143.450912 168.909933,141.276934 167.011704,140.149884 C165.134109,139.017493 161.513032,137.099906 158.964866,135.898075 C156.468283,134.696245 153.239232,132.826731 151.877459,131.758437 C149.628471,129.995752 142.984671,126.539822 129.954984,120.258255 C128.077388,119.382254 126.581502,118.42079 126.529919,118.05757 C126.488653,117.689009 125.910932,117.624911 125.15783,117.91335 C124.445995,118.20179 123.827007,117.977448 123.723842,117.427277 C123.569096,116.476495 120.020234,114.329225 112.210674,110.536782 C109.641876,109.249488 107.382572,107.892755 107.320673,107.561584 C107.26909,107.225072 103.359153,105.14724 98.7992777,102.994628 C94.1878205,100.842017 90.4945282,99.0259172 90.7214903,99.0098928 C91.3301614,98.9885269 79.744778,92.2369105 73.6580672,89.0533952 C71.0995854,87.7020037 68.8402808,86.2651486 68.7783821,85.8965872 C68.7164833,85.5387088 66.4778117,84.3422199 63.764583,83.1831212 C61.0100885,82.0293639 57.358062,80.1758743 55.4804665,78.9740439 C53.602871,77.8149452 49.1771101,75.3578696 45.6901469,73.5631361 C42.2238167,71.7737441 39.2836259,70.0591327 39.2423601,69.8027422 C39.0566638,68.8573022 35.4149538,67.8477647 33.3310291,68.1949601 C29.8543824,68.7344485 30.9582436,70.7642065 35.8482451,72.7672573 C38.3035623,73.7821363 44.0704629,76.8000661 48.6509707,79.4440931 C53.2005291,82.0720957 58.5754042,84.9671717 60.5355314,85.8324896 C62.4543927,86.6711002 65.7969254,88.4177605 67.8705337,89.6516397 C69.9338255,90.8694946 73.3692063,92.8084477 75.4324981,93.8927658 C77.5061064,94.9717425 80.0336388,96.4192805 81.0652847,97.097647 C85.4188304,99.9232839 90.1334521,102.652774 98.4794674,107.048803 C103.379785,109.676806 108.899091,112.753492 110.807636,113.955322 C112.705864,115.141128 116.522954,117.165545 119.287765,118.431473 C122.01131,119.686718 124.332514,120.909914 124.363463,121.139597 C124.415045,121.385305 126.220426,122.38416 128.366249,123.383014 C135.608403,126.732115 147.049356,132.607731 148.52461,133.702732 C149.308661,134.295635 150.567269,135.118221 151.186256,135.454733 C151.877459,135.817953 154.435941,137.249467 156.932524,138.654273 C162.658159,141.88052 168.280629,144.877084 172.99525,147.216647 C175.048226,148.226185 179.381139,150.448236 182.579241,152.104091 C185.808292,153.759947 190.099939,155.869827 192.091016,156.767193 C194.082093,157.66456 201.221082,161.275393 207.947413,164.779396 C224.773558,173.598161 224.412482,173.373819 224.536279,173.998771 C224.577545,174.367333 226.228179,175.072406 228.363686,175.649285 C231.138813,176.407774 232.273624,176.445164 232.913244,175.77748 C234.667042,173.923991 234.543245,173.833186 213.22944,163.15559 C210.443996,161.750784 205.780957,159.480659 202.882032,158.081195" id="Fill-7" fill="#F29C50"></path>
            <path d="M476.626722,51.8476377 C475.560322,52.8794449 474.801537,54.0983673 474.883568,54.6329824 C474.986106,55.1943282 474.709252,55.8198279 474.237575,56.1405969 C473.724883,56.4292891 473.355744,57.0708272 473.26346,57.6214808 C473.212191,58.1721343 471.776652,60.6153253 470.01299,63.1173239 C468.259582,65.635361 466.311351,68.9125515 465.593582,70.489666 C464.927081,72.0347037 463.952966,73.6545874 463.450527,74.0608949 C462.989104,74.4672023 460.241073,78.9312384 457.298219,84.0528509 C454.375872,89.1958481 450.910071,94.9269219 449.505294,96.9156901 C448.090263,98.9365351 446.726502,101.604264 446.388125,102.972879 C446.080509,104.309417 445.403755,105.587147 444.942332,105.800993 C443.937455,106.228685 433.570815,122.801753 430.863799,128.351058 C429.899937,130.33448 428.689983,132.526401 428.167037,133.322978 C427.182668,134.825246 425.77789,138.032937 421.973713,147.704124 C419.799897,153.226698 416.836535,158.62631 414.385865,161.518578 C413.780888,162.251001 413.380988,163.330923 413.504035,163.967115 C413.606573,164.597961 412.181288,166.661575 410.29458,168.634305 C408.397618,170.596342 406.921064,172.440764 406.982587,172.766879 C407.187664,173.878879 411.658342,174.124802 413.257942,173.103687 C415.288204,171.820611 418.333597,166.784537 417.06212,166.837998 C416.467397,166.84869 416.74425,166.570691 417.605574,166.217845 C419.133397,165.603037 424.332098,156.493196 426.198298,151.109622 C427.756883,146.597471 440.902316,118.947178 442.953086,115.841064 C444.039993,114.183758 445.403755,112.628028 445.988224,112.403489 C446.582948,112.15222 447.290463,110.976067 447.608332,109.789222 C447.946709,108.591684 449.09514,106.597569 450.21281,105.367955 C452.263579,103.117225 458.497919,90.2971552 458.344111,88.6612331 C458.303096,88.1961179 458.764519,87.8165412 459.400257,87.7951566 C460.025742,87.7630797 461.030619,86.8435417 461.604835,85.7796577 C462.230319,84.6623122 463.389004,82.88739 464.373374,81.6577753 C465.275712,80.4655837 467.388005,76.9905856 468.987605,73.9432795 C470.597459,70.8852812 473.140414,66.5602451 474.657983,64.3041694 C478.862061,58.0705574 480.030999,56.1352508 481.169176,53.520983 C482.799538,49.767985 479.866938,48.7094471 476.626722,51.8476377" id="Fill-9" fill="#F29C50"></path>
            <path d="M303.086749,158.022925 C297.969589,152.710095 292.893367,147.589488 291.747123,146.590996 C290.570176,145.608523 289.556979,144.545957 289.454635,144.273641 C289.352292,143.985307 288.420969,143.168359 287.377069,142.458202 C286.292231,141.737366 282.710219,138.149203 279.404534,134.496966 C276.037443,130.83405 272.680586,127.235208 271.902778,126.519711 C268.269594,123.14513 265.475625,119.914715 265.301642,118.84147 C265.168596,118.158011 263.848368,116.454701 262.384861,115.061085 C260.941822,113.667468 259.549954,112.28987 259.406674,111.996196 C259.253159,111.702522 258.966598,111.360792 258.751677,111.15255 C258.516288,110.971006 258.209259,110.629277 257.932932,110.340942 C257.707777,110.063287 255.967943,108.381335 253.992719,106.528519 C245.539171,98.5939808 239.562329,92.4481843 239.378111,91.4550321 C239.326939,91.1186419 236.266878,87.6372697 232.582523,83.7340749 C228.836762,79.8041824 223.617259,74.2297154 220.89493,71.2983146 C215.235352,65.232611 212.062713,63.6360922 210.732251,66.1296517 C210.281941,66.9839762 218.684317,76.450959 224.364364,81.550208 C227.639347,84.4335531 241.547787,99.5337377 244.290584,103.164617 C245.242376,104.430085 246.920804,106.047962 248.056814,106.800835 C250.82008,108.616275 261.545647,120.245766 261.770802,121.650062 C261.893613,122.274787 262.937514,123.577631 264.053055,124.528067 C266.621869,126.615823 273.192302,134.123199 273.37652,135.185765 C273.437926,135.612927 275.883928,138.042412 278.851881,140.685479 C287.796676,148.593319 290.774863,151.546078 290.948846,152.624663 C291.030721,153.174634 291.71642,153.799359 292.381651,153.964884 C293.384614,154.226521 300.906839,161.733897 301.418555,162.956649 C301.490195,163.148872 302.605736,164.147364 303.987369,165.274004 C305.348533,166.347249 307.794536,169.038371 309.442261,171.248936 C312.717243,175.680744 315.081371,177.597634 317.097532,177.496183 C318.806663,177.400072 321.2629,173.940058 319.881267,173.57697 C318.223307,173.11777 312.676306,167.991824 303.086749,158.022925" id="Fill-11" fill="#F29C50"></path>
            <path d="M266.93319,165.872101 C265.996941,165.920146 264.14502,165.098034 262.828098,164.05171 C261.521464,163.005386 259.628389,161.772218 258.620121,161.345146 C255.770219,160.037241 242.693596,151.255591 240.522732,149.194972 C239.504175,148.223385 237.425908,146.621869 235.892929,145.634267 C234.390814,144.652003 233.526584,143.824553 234.030719,143.803199 C234.586295,143.781845 234.041007,143.290714 232.785816,142.644769 C231.571778,142.036192 227.826782,139.164139 224.462458,136.27607 C221.139287,133.382663 215.027946,128.647512 210.964008,125.786135 C199.204306,117.543662 192.815177,112.392116 176.83721,98.4268895 C171.209426,93.4942177 165.941739,89.2448598 165.180393,89.0580161 C164.47049,88.8551573 161.702896,86.8692765 158.997033,84.5524155 C153.307519,79.6891428 147.041851,76.3419727 144.737237,76.9452107 C143.842142,77.1640846 143.19397,77.9541663 143.296854,78.6374801 C143.410027,79.3368091 144.305122,80.1429059 145.25166,80.3884718 C146.259928,80.6607297 148.626273,82.1821706 150.57079,83.831733 C156.239728,88.5722227 161.723473,92.5813531 162.978664,92.9283484 C164.316163,93.2966973 185.01653,111.169625 185.695568,112.530914 C185.901337,112.995354 186.909605,113.764082 187.845854,114.159123 C188.8747,114.602209 189.615468,115.189432 189.677199,115.563119 C189.728641,115.947483 190.685467,116.673504 191.827486,117.239374 C192.959215,117.805243 196.447001,120.282256 199.667287,122.834006 C202.877284,125.401771 206.601704,128.145703 208.02151,129.042552 C210.655354,130.74016 223.752554,141.08062 235.368217,150.663029 C239.01033,153.695235 244.072249,157.309324 246.510612,158.633245 C248.990129,159.957165 253.167241,162.968017 255.749642,165.290216 C261.048195,170.030706 263.321944,171.151768 266.243864,170.420408 C268.7954,169.763786 269.422996,165.759994 266.93319,165.872101" id="Fill-13" fill="#F29C50"></path>
            <path d="M455.409077,174.91959 C455.99435,174.471487 457.84258,173.047159 459.516255,171.724188 C461.200198,170.406552 462.144849,169.344975 461.59038,169.371647 C461.025643,169.392986 461.364485,168.854195 462.452888,168.12336 C463.469414,167.413864 465.471663,165.386731 466.960515,163.588984 C468.408295,161.807241 471.375731,158.537156 473.521732,156.349986 C475.657464,154.173485 478.717312,150.796709 480.195896,148.950951 C481.72582,147.067851 483.430298,145.494156 483.943696,145.467483 C484.528969,145.45148 484.908882,145.163413 484.826739,144.763321 C484.775399,144.373898 487.845515,140.693052 491.634386,136.633452 C495.433526,132.58452 501.080895,126.268401 504.058599,122.726253 C513.155998,111.977114 519.902038,104.519399 521.873483,103.063064 C522.869474,102.310891 525.806106,98.8380927 528.506576,95.2746065 C531.196777,91.6791129 533.640548,88.6490827 533.999926,88.4250312 C534.37984,88.2223179 537.131649,85.4536812 540.170961,82.2636142 C543.189736,79.0788817 546.721909,75.4673845 548.036206,74.2777776 C551.291145,71.3544386 556.486725,64.0514257 556.281366,62.8084732 C555.942524,60.8720278 553.478217,61.9816164 549.627738,65.8278342 C547.461201,67.9990002 544.853143,70.8209826 543.764741,72.1652917 C542.748215,73.4509207 541.505793,74.7472189 541.115612,74.939263 C540.704894,75.15798 539.216042,76.7796863 537.757994,78.5614294 C536.248606,80.3485071 534.359304,82.3329635 533.486529,82.9784452 C532.624021,83.6559344 531.946337,84.4667875 532.018213,84.8562104 C532.07982,85.2349642 531.053026,86.3925638 529.769533,87.4167993 C528.38336,88.5210533 527.828891,89.8013477 528.444968,90.537517 C529.245868,91.5350798 529.173992,91.5777562 527.890499,90.7935759 C526.607006,90.004061 526.021733,90.3294692 524.63556,92.6019918 C523.731981,94.1543488 521.103387,97.3390812 518.803368,99.8089826 C516.472544,102.268215 513.885022,105.186219 512.981443,106.397164 C512.04706,107.586771 510.424725,109.17647 509.192572,110.024665 C508.032294,110.824849 506.245671,112.6386 505.280485,114.009582 C504.30503,115.369895 502.220637,117.818458 500.670178,119.418826 C499.068378,121.035198 496.542464,123.905191 494.971468,125.91632 C493.390205,127.895442 487.855783,134.067528 482.670471,139.642143 C477.505694,145.216759 471.858325,151.51154 470.112774,153.624026 C468.408295,155.720508 465.276572,159.027935 463.233251,160.879028 C461.107787,162.772796 458.776963,165.232029 457.914456,166.42697 C457.010877,167.637915 455.193451,169.371647 453.704599,170.438559 C452.246551,171.452126 449.792512,173.932696 448.170176,175.959829 C446.588913,177.954955 443.693353,180.590227 441.732175,181.785169 C441.383065,182.025224 441.033955,182.265279 440.695113,182.5 L448.95054,182.115912 C449.176435,181.854518 449.371526,181.619798 449.607689,181.331731 C452.205479,178.232352 454.813537,175.373028 455.409077,174.91959" id="Fill-15" fill="#F29C50"></path>
            <path d="M658.301034,65.489013 C645.481027,73.5302828 609.921505,94.8024643 579.781069,112.409796 C573.164623,116.24585 566.331415,120.467116 564.65924,121.70835 C563.028353,122.901432 559.136934,125.485553 556.164179,127.363454 C553.181101,129.236006 546.657555,133.612425 541.733929,137.052569 C526.715321,147.474654 508.754924,158.67786 505.121556,159.897694 C501.09595,161.267331 499.516673,163.803301 502.303631,164.563021 C505.183488,165.328092 506.071186,165.178288 508.331719,163.391339 C509.498112,162.481814 512.119917,160.791168 514.349484,159.539234 C516.52744,158.2873 517.900275,157.067466 517.456426,156.757158 C517.002255,156.414749 517.198375,156.243544 517.941563,156.323796 C518.612498,156.371947 522.245865,154.424494 526.06503,151.952727 C537.852831,144.291317 549.743853,136.410552 561.139415,128.733092 C571.956942,121.424792 597.442126,105.791665 599.227843,105.352953 C600.156829,105.133597 616.78568,95.1288232 659.931921,68.8810057 C669.5108,63.0225956 677.025265,57.9720575 676.684636,57.5547461 C675.074394,55.7089456 671.16233,57.3888916 658.301034,65.489013" id="Fill-17" fill="#F29C50"></path>
            <path d="M96.8208349,142.628496 C88.4501154,139.744703 77.2135585,135.796207 71.7499115,133.795208 C66.3378084,131.81026 60.9772491,130.044672 59.8535934,129.889514 C57.2351664,129.498945 45.3182308,125.250835 39.2051315,122.548951 C36.6588658,121.414695 34.1126002,120.478398 33.6074705,120.505149 C33.0714146,120.526551 31.0818224,119.724011 28.968525,118.632557 C24.8450179,116.524552 24.4223584,116.465699 21.1957141,117.648108 C17.247456,119.081979 19.2989008,120.756612 27.8757956,123.046525 C32.4941236,124.298487 36.339294,125.609302 36.4011466,125.97312 C36.473308,126.326238 37.318627,126.583051 38.2464161,126.540248 C39.225749,126.492096 41.8132497,127.294636 44.15334,128.364689 C46.5655917,129.424041 49.1634012,130.221231 50.2045868,130.173078 C51.1323759,130.119576 52.3900455,130.542247 52.8848664,131.098674 C53.3693785,131.623 54.5548868,132.061722 55.4517496,132.02962 C56.3486124,131.981468 60.2144003,133.206679 63.9461743,134.747555 C67.7088745,136.299132 71.2138556,137.551094 71.7086765,137.529693 C72.481834,137.497591 78.213509,139.49324 85.4090289,142.366333 C86.9759616,142.986963 91.3881142,144.522489 95.2332846,145.75305 C99.03722,146.988962 104.913218,149.006012 108.294493,150.199121 C111.861327,151.467133 115.077663,152.146617 115.93329,151.79885 C116.788918,151.445732 117.139416,151.531337 116.68583,151.959358 C116.304406,152.392729 117.716707,153.329026 119.860931,154.045961 C121.953611,154.768247 126.0565,156.218169 128.757398,157.229369 C131.509839,158.235219 138.602271,160.733793 144.437034,162.756193 C150.271796,164.767892 157.51886,167.416274 160.44655,168.577281 C165.776183,170.728088 170.013086,171.268465 169.765676,169.797142 C169.487339,168.192062 146.447243,159.615587 96.8208349,142.628496" id="Fill-19" fill="#F29C50"></path>
            <path d="M658.094085,114.15778 C656.445134,115.01173 651.887472,116.751652 648.118439,118.011227 C640.180939,120.637121 623.138357,127.570123 617.49505,130.478888 C609.793114,134.439079 606.577146,135.89613 605.522226,135.949502 C604.938436,135.981525 603.248517,136.707382 601.814645,137.572006 C600.350049,138.441967 598.270936,139.40266 597.2365,139.690868 C592.811983,140.966455 577.111095,147.883445 576.60924,148.790766 C576.312224,149.361845 575.636256,149.682076 575.083192,149.532635 C573.587869,149.148358 540.895609,164.231239 540.63956,165.416094 C540.557625,166.008521 541.417947,166.61696 542.64698,166.819773 C544.787544,167.172027 547.563109,166.02987 564.790046,157.773247 C569.818837,155.350165 574.478918,153.327372 575.062708,153.306024 C575.65674,153.279338 577.633434,152.329319 579.466741,151.256545 C581.248837,150.16776 583.911741,148.86015 585.263676,148.38514 C590.169564,146.650556 609.649727,138.233817 609.987711,137.678749 C610.233517,137.33717 610.858275,137.096996 611.564969,137.059636 C612.589162,137.016939 624.510776,131.743801 630.881261,128.514805 C631.710857,128.082493 632.683841,127.762262 633.124245,127.74625 C633.615858,127.714227 634.517148,127.383322 635.387713,126.945673 C638.685616,125.232437 646.182713,122.414404 649.040214,121.821976 C650.678923,121.464385 652.77852,120.781225 653.802714,120.247507 C654.847391,119.713789 657.807311,118.635678 660.459973,117.840437 C665.406828,116.362037 668.22336,114.168455 666.605134,113.026297 C665.161021,112.012232 661.391989,112.503253 658.094085,114.15778" id="Fill-21" fill="#F29C50"></path>
            <path d="M58.5373766,171.083952 C56.7223396,170.529254 54.5689059,170.155899 53.5947335,170.193234 C52.159111,170.267905 43.7914827,168.193119 39.9665742,166.795705 C39.0949463,166.513022 36.2237013,165.995659 33.506273,165.643638 C30.7580814,165.302285 26.0615449,164.256892 22.8416488,163.254167 C19.6012437,162.267443 16.4223653,161.499399 15.6122641,161.536734 C14.7919083,161.579404 12.6077113,161.094042 10.6080942,160.432671 C6.66013237,159.093927 1.3175658,159.013922 0.0972866818,160.261994 C-0.302636727,160.65135 0.568991215,161.536734 2.00461371,162.240775 C4.74255089,163.579519 12.4333857,165.542299 12.3103323,164.880928 C12.2488056,164.528907 46.3756032,171.633317 48.9289604,172.508035 C49.7082983,172.758716 60.5780114,175.132186 73.1089449,177.756338 C85.721914,180.385823 97.1351128,182.791295 98.6732797,183.137982 C100.190938,183.463334 105.143835,184.455391 109.686555,185.292773 C114.260038,186.151489 120.484487,187.554237 123.560821,188.434288 C126.657664,189.298337 132.441172,190.567744 136.563459,191.239783 C141.218978,192.029162 148.458617,193.453244 155.636729,195 L167.367816,194.461302 C158.764336,192.413184 146.787142,189.746363 140.747273,188.546294 C118.002911,183.996698 61.6034561,171.996005 58.5373766,171.083952" id="Fill-23" fill="#F29C50"></path>
            <path d="M350.95018,156.877899 C349.823156,156.926145 348.674459,157.285312 348.240989,157.698085 C347.059781,158.855996 350.18077,171.008696 351.914652,171.946818 C355.068151,173.613995 355.685846,171.635898 354.309577,164.329268 C353.204227,158.368172 352.489001,156.797488 350.95018,156.877899" id="Fill-25" fill="#F29C50"></path>
            <path d="M388.514173,155.801805 C388.22158,156.131326 388.134886,157.906487 388.340785,159.825149 C388.774255,163.944161 388.622541,166.686625 387.85313,169.716092 C387.517191,170.981027 387.82062,171.911126 388.4925,171.873922 C391.450936,171.730421 393.217329,170.321985 393.152309,168.174784 C393.087288,166.899219 393.173982,163.79003 393.28235,161.297363 C393.488248,157.640744 393.098125,156.614977 391.299222,155.993139 C390.096341,155.59984 388.785092,155.498858 388.514173,155.801805" id="Fill-27" fill="#F29C50"></path>
            <path d="M337.818799,169.860352 C335.874808,164.701237 331.666389,162.045579 329.978748,164.947909 C329.65831,165.530474 330.66235,167.850239 332.285902,170.159507 C333.877411,172.489769 335.116438,175.218904 335.041669,176.315806 C334.838725,178.730041 336.088434,180.094609 338.406269,179.99489 C340.617291,179.90042 341.418386,177.675126 340.157997,175.287132 C339.613252,174.279452 338.609213,171.859968 337.818799,169.860352" id="Fill-29" fill="#F29C50"></path>
            <path d="M190.728979,176.809779 C187.574543,176.47129 183.962038,175.240418 183.83711,174.44548 C183.712181,173.783887 179.016965,172.445314 176.986883,172.501729 C176.039511,172.547886 174.977622,173.004335 174.654891,173.537712 C174.363392,174.101862 175.112961,174.968601 176.435117,175.491721 C177.663577,175.994327 179.672838,176.95851 180.661853,177.507273 C184.014091,179.363838 190.989246,180.635739 192.602901,179.666427 C194.820375,178.348369 194.039574,177.179041 190.728979,176.809779" id="Fill-31" fill="#F29C50"></path>
            <g id="Group-35" transform="translate(600.460246, 153.125000)">
              <mask id="mask-5" fill="white">
                <use xlink:href="#path-4"></use>
              </mask>
              <g id="Clip-34"></g>
              <path d="M51.5749043,12.129875 C52.6393155,12.09225 58.5754546,10.571125 64.6651145,8.82425 C75.3194607,5.755125 84.3157818,3.9115 87.9286389,4.062 C90.4156765,4.153375 89.3615001,0.853125 86.7618805,0.4715 C83.7426374,0.014625 82.094847,0.218875 77.1617108,1.637875 C74.7053773,2.342 70.4272633,3.62125 67.6638882,4.4705 C59.0462518,7.0935 43.6122902,11.130125 41.8007443,11.21075 C40.8796193,11.25375 37.9422539,11.979375 35.4245121,12.785625 C32.845362,13.613375 21.8123311,16.494375 10.9532905,19.192625 C6.90034035,20.2085 3.29771801,21.09 0.0840151203,21.89625 L17.6570338,21.09 C32.1698704,17.397375 42.8549207,14.50025 47.5219542,12.93075 C48.6580084,12.559875 50.5719015,12.183625 51.5749043,12.129875" id="Fill-33" fill="#F29C50" mask="url(#mask-5)"></path>
            </g>
            <path d="M279.832455,175.505373 C277.817262,172.948691 274.465462,172.317544 273.437302,174.269822 C272.686746,175.676532 275.802069,178.816223 282.012153,182.913333 C289.301805,187.716472 290.103769,188.074835 291.131929,186.999745 C292.139525,185.994188 290.186022,183.769126 285.168603,180.335256 C283.359042,179.062264 280.963431,176.922781 279.832455,175.505373" id="Fill-36" fill="#F29C50"></path>
            <path d="M248.179608,178.164636 C245.108361,178.914105 247.128918,180.371406 256.100193,183.8377 C261.434464,185.88833 265.829176,188.08469 268.536723,190 L272.123212,189.838656 C271.436222,189.188075 270.66841,188.521881 269.819776,187.814049 C265.62712,184.222843 250.674996,177.550488 248.179608,178.164636" id="Fill-38" fill="#F29C50"></path>
            <path d="M221.32248,186.659695 C220.796859,186.685783 217.69367,185.647464 214.307454,184.296083 C210.931346,182.918614 208.070752,181.864641 207.91913,181.875077 C207.737184,181.880295 206.655617,182.506417 205.604374,183.226457 C203.724266,184.499573 204.088158,184.739586 213.246103,187.551919 C221.413453,190.087714 223.162156,190.400775 224.931074,189.628558 C226.892047,188.783293 226.881939,188.663286 224.678372,187.677143 C223.394642,187.124069 221.878426,186.638824 221.32248,186.659695" id="Fill-40" fill="#F29C50"></path>
            <path d="M409.748924,176.389755 C409.098718,176.367802 407.549061,176.323897 406.107771,176.25804 C404.417236,176.186694 403.723683,176.587328 403.897071,177.575193 C404.037949,178.343533 402.889252,181.126021 401.372105,183.672518 C401.242063,183.913996 401.112022,184.13901 400.960308,184.375 L407.48404,184.089617 C407.776633,183.694471 408.058389,183.332253 408.350981,182.942595 C411.201051,179.38628 411.818746,176.406219 409.748924,176.389755" id="Fill-42" fill="#F29C50"></path>
            <path d="M480.670187,175.378717 C475.203365,177.744414 474.093559,179.449185 477.710705,179.978976 C480.341355,180.388121 490.19602,174.702054 488.706003,173.689682 C487.287918,172.698292 486.496668,172.866147 480.670187,175.378717" id="Fill-44" fill="#F29C50"></path>
            <path d="M521.568967,176.45854 C521.783066,176.145134 522.608877,175.908795 523.536641,175.836866 C526.02427,175.693008 530.703869,172.939145 529.643568,172.271231 C528.552681,171.52625 522.303021,171.921861 522.445754,172.713082 C522.49673,173.036764 522.027751,173.262827 521.232525,173.288516 C520.488275,173.324481 518.979385,173.812572 517.786546,174.459935 C516.685464,175.030231 514.564862,176.026965 513.331242,176.561296 C511.832547,177.198384 511.363568,177.963916 512.036451,178.642106 C512.067037,178.678071 512.097623,178.70376 512.138403,178.75 L516.542731,178.554764 C516.756831,178.49311 516.909759,178.421181 517.123858,178.354389 C519.376998,177.583719 521.385453,176.746257 521.568967,176.45854" id="Fill-46" fill="#F29C50"></path>
            <path d="M316.749267,183.88018 C316.348307,184.234555 317.594535,185.955805 319.588499,187.87393 L326.675744,187.55893 C325.169433,185.933305 323.587266,184.425805 322.611957,183.897055 C320.856401,182.873305 317.702902,182.86768 316.749267,183.88018" id="Fill-48" fill="#F29C50"></path>
            <path d="M384.360792,180.672762 C382.941175,180.588387 381.824989,180.616512 381.781642,180.751512 C381.727458,180.869637 381.694947,182.697762 381.738294,184.739637 C381.727458,184.947762 381.716621,185.172762 381.694947,185.403387 L387.232534,185.155887 C387.243371,184.947762 387.221698,184.773387 387.210861,184.599012 C386.896595,181.454637 386.40894,180.802137 384.360792,180.672762" id="Fill-50" fill="#F29C50"></path>
            <path d="M358.424801,185.000494 C357.601206,185.051119 356.875143,185.506744 356.409162,186.243619 L359.86609,186.069244 C359.421783,185.399869 358.955802,184.983619 358.424801,185.000494" id="Fill-52" fill="#F29C50"></path>
          </g>
        </g>
      </g>
    </g>
  </g>
</svg>
